[
  {
    "code": "PEK",
    "name": "北京"
  },
  {
    "code": "CTU",
    "name": "成都"
  },
  {
    "code": "SHA",
    "name": "上海"
  },
  {
    "code": "CAN",
    "name": "广州"
  },
  {
    "code": "BAV",
    "name": "包头"
  },
  {
    "code": "BHY",
    "name": "北海"
  },
  {
    "code": "CGQ",
    "name": "长春"
  },
  {
    "code": "CGD",
    "name": "常德"
  },
  {
    "code": "BPX",
    "name": "昌都"
  },
  {
    "code": "CSX",
    "name": "长沙"
  },
  {
    "code": "CIH",
    "name": "长治"
  },
  {
    "code": "CZX",
    "name": "常州"
  },
  {
    "code": "CKG",
    "name": "重庆"
  },
  {
    "code": "DLC",
    "name": "大连"
  },
  {
    "code": "DDG",
    "name": "丹东"
  },
  {
    "code": "DAT",
    "name": "大同"
  },
  {
    "code": "DAX",
    "name": "达县"
  },
  {
    "code": "DNH",
    "name": "敦煌"
  },
  {
    "code": "DSN",
    "name": "鄂尔多斯"
  },
  {
    "code": "FOC",
    "name": "福州"
  },
  {
    "code": "KWL",
    "name": "桂林"
  },
  {
    "code": "KWE",
    "name": "贵阳"
  },
  {
    "code": "HRB",
    "name": "哈尔滨"
  },
  {
    "code": "HAK",
    "name": "海口"
  },
  {
    "code": "HLD",
    "name": "海拉尔"
  },
  {
    "code": "HGH",
    "name": "杭州"
  },
  {
    "code": "HFE",
    "name": "合肥"
  },
  {
    "code": "TXN",
    "name": "黄山"
  },
  {
    "code": "HET",
    "name": "呼和浩特"
  },
  {
    "code": "JMU",
    "name": "佳木斯"
  },
  {
    "code": "TNA",
    "name": "济南"
  },
  {
    "code": "JDZ",
    "name": "景德镇"
  },
  {
    "code": "JGS",
    "name": "井冈山"
  },
  {
    "code": "JZH",
    "name": "九寨沟"
  },
  {
    "code": "KMG",
    "name": "昆明"
  },
  {
    "code": "LHW",
    "name": "兰州"
  },
  {
    "code": "LXA",
    "name": "拉萨"
  },
  {
    "code": "LJG",
    "name": "丽江"
  },
  {
    "code": "LZY",
    "name": "林芝"
  },
  {
    "code": "LZO",
    "name": "泸州"
  },
  {
    "code": "LUM",
    "name": "芒市"
  },
  {
    "code": "MIG",
    "name": "绵阳"
  },
  {
    "code": "KHN",
    "name": "南昌"
  },
  {
    "code": "NKG",
    "name": "南京"
  },
  {
    "code": "NNG",
    "name": "南宁"
  },
  {
    "code": "NTG",
    "name": "南通"
  },
  {
    "code": "NGB",
    "name": "宁波"
  },
  {
    "code": "PZI",
    "name": "攀枝花"
  },
  {
    "code": "TAO",
    "name": "青岛"
  },
  {
    "code": "NDG",
    "name": "齐齐哈尔"
  },
  {
    "code": "JJN",
    "name": "泉州"
  },
  {
    "code": "WXN",
    "name": "万州"
  },
  {
    "code": "SYX",
    "name": "三亚"
  },
  {
    "code": "SHE",
    "name": "沈阳"
  },
  {
    "code": "SZX",
    "name": "深圳"
  },
  {
    "code": "TYN",
    "name": "太原"
  },
  {
    "code": "TSN",
    "name": "天津"
  },
  {
    "code": "TGO",
    "name": "通辽"
  },
  {
    "code": "WEH",
    "name": "威海"
  },
  {
    "code": "WNZ",
    "name": "温州"
  },
  {
    "code": "WUH",
    "name": "武汉"
  },
  {
    "code": "URC",
    "name": "乌鲁木齐"
  },
  {
    "code": "WUX",
    "name": "无锡"
  },
  {
    "code": "XMN",
    "name": "厦门"
  },
  {
    "code": "XIY",
    "name": "西安"
  },
  {
    "code": "XFN",
    "name": "襄樊"
  },
  {
    "code": "XIC",
    "name": "西昌"
  },
  {
    "code": "XIL",
    "name": "锡林浩特"
  },
  {
    "code": "XNN",
    "name": "西宁"
  },
  {
    "code": "JHG",
    "name": "西双版纳"
  },
  {
    "code": "XUZ",
    "name": "徐州"
  },
  {
    "code": "YNZ",
    "name": "盐城"
  },
  {
    "code": "YNJ",
    "name": "延吉"
  },
  {
    "code": "YNT",
    "name": "烟台"
  },
  {
    "code": "YBP",
    "name": "宜宾"
  },
  {
    "code": "YIH",
    "name": "宜昌"
  },
  {
    "code": "INC",
    "name": "银川"
  },
  {
    "code": "YIW",
    "name": "义乌"
  },
  {
    "code": "YCU",
    "name": "运城"
  },
  {
    "code": "DYG",
    "name": "张家界"
  },
  {
    "code": "CGO",
    "name": "郑州"
  },
  {
    "code": "ZUH",
    "name": "珠海"
  }
]