{
  "MD5": "3d4125fa3b58ae9598fd6de46e0b382e",
  "baseCoin": "za",
  "data": [
    {
      "id": "136",
      "price": 0.45,
      "side": "BUY",
      "vol": 1
    },
    {
      "id": "135",
      "price": 0.45,
      "side": "BUY",
      "vol": 1
    },
    {
      "id": "134",
      "price": 0.4511,
      "side": "BUY",
      "vol": 1
    },
    {
      "id": "133",
      "price": 0.45,
      "side": "SELL",
      "vol": 5
    },
    {
      "id": "132",
      "price": 0.43,
      "side": "BUY",
      "vol": 1
    },
    {
      "id": "131",
      "price": 0.5,
      "side": "BUY",
      "vol": 1
    },
    {
      "id": "130",
      "price": 0.5,
      "side": "BUY",
      "vol": 5
    },
    {
      "id": "129",
      "price": 0.5,
      "side": "BUY",
      "vol": 8
    },
    {
      "id": "128",
      "price": 0.5,
      "side": "BUY",
      "vol": 11
    },
    {
      "id": "127",
      "price": 0.5,
      "side": "SELL",
      "vol": 0.5
    },
    {
      "id": "126",
      "price": 0.52,
      "side": "SELL",
      "vol": 0.5
    },
    {
      "id": "125",
      "price": 0.6,
      "side": "BUY",
      "vol": 1
    },
    {
      "id": "124",
      "price": 0.59,
      "side": "BUY",
      "vol": 2
    },
    {
      "id": "123",
      "price": 0.54,
      "side": "BUY",
      "vol": 1
    },
    {
      "id": "122",
      "price": 0.53,
      "side": "BUY",
      "vol": 1.98
    },
    {
      "id": "121",
      "price": 0.53,
      "side": "BUY",
      "vol": 0.01
    },
    {
      "id": "120",
      "price": 0.53,
      "side": "BUY",
      "vol": 0.01
    },
    {
      "id": "119",
      "price": 0.52,
      "side": "BUY",
      "vol": 0.5
    },
    {
      "id": "118",
      "price": 0.5,
      "side": "SELL",
      "vol": 5
    },
    {
      "id": "117",
      "price": 0.4,
      "side": "SELL",
      "vol": 10
    },
    {
      "id": "116",
      "price": 0.15,
      "side": "SELL",
      "vol": 0.5
    },
    {
      "id": "115",
      "price": 0.45,
      "side": "SELL",
      "vol": 1
    },
    {
      "id": "114",
      "price": 0.3,
      "side": "SELL",
      "vol": 1
    },
    {
      "id": "113",
      "price": 0.23,
      "side": "SELL",
      "vol": 1
    },
    {
      "id": "112",
      "price": 0.5,
      "side": "SELL",
      "vol": 40
    },
    {
      "id": "111",
      "price": 0.5,
      "side": "SELL",
      "vol": 45
    },
    {
      "id": "110",
      "price": 0.5,
      "side": "SELL",
      "vol": 5
    },
    {
      "id": "109",
      "price": 0.5,
      "side": "SELL",
      "vol": 100
    },
    {
      "id": "108",
      "price": 0.5,
      "side": "SELL",
      "vol": 30
    },
    {
      "id": "107",
      "price": 0.5,
      "side": "SELL",
      "vol": 10
    },
    {
      "id": "106",
      "price": 0.5,
      "side": "SELL",
      "vol": 4.5
    },
    {
      "id": "105",
      "price": 0.15,
      "side": "SELL",
      "vol": 2.5
    },
    {
      "id": "104",
      "price": 0.2,
      "side": "SELL",
      "vol": 2
    },
    {
      "id": "103",
      "price": 0.2,
      "side": "SELL",
      "vol": 8
    },
    {
      "id": "102",
      "price": 0.2,
      "side": "SELL",
      "vol": 2
    },
    {
      "id": "101",
      "price": 0.2,
      "side": "SELL",
      "vol": 2
    },
    {
      "id": "100",
      "price": 0.15,
      "side": "SELL",
      "vol": 0.5
    },
    {
      "id": "99",
      "price": 0.5,
      "side": "SELL",
      "vol": 1
    },
    {
      "id": "98",
      "price": 0.5,
      "side": "SELL",
      "vol": 1
    },
    {
      "id": "97",
      "price": 0.5,
      "side": "SELL",
      "vol": 50
    },
    {
      "id": "96",
      "price": 0.51,
      "side": "SELL",
      "vol": 20
    },
    {
      "id": "95",
      "price": 0.5,
      "side": "SELL",
      "vol": 20
    },
    {
      "id": "94",
      "price": 0.52,
      "side": "BUY",
      "vol": 0.5
    },
    {
      "id": "93",
      "price": 0.51,
      "side": "BUY",
      "vol": 0.5
    },
    {
      "id": "92",
      "price": 0.5,
      "side": "BUY",
      "vol": 1
    },
    {
      "id": "91",
      "price": 0.49,
      "side": "BUY",
      "vol": 1
    },
    {
      "id": "90",
      "price": 0.48,
      "side": "BUY",
      "vol": 1
    },
    {
      "id": "89",
      "price": 0.46,
      "side": "SELL",
      "vol": 20
    },
    {
      "id": "88",
      "price": 0.4,
      "side": "SELL",
      "vol": 10
    },
    {
      "id": "87",
      "price": 0.46,
      "side": "SELL",
      "vol": 10
    },
    {
      "id": "84",
      "price": 0.16,
      "side": "SELL",
      "vol": 1
    },
    {
      "id": "81",
      "price": 0.46,
      "side": "SELL",
      "vol": 20
    },
    {
      "id": "79",
      "price": 0.45,
      "side": "SELL",
      "vol": 10
    },
    {
      "id": "78",
      "price": 0.4,
      "side": "SELL",
      "vol": 10
    },
    {
      "id": "75",
      "price": 0.16,
      "side": "SELL",
      "vol": 5
    },
    {
      "id": "73",
      "price": 0.47,
      "side": "BUY",
      "vol": 0.5
    },
    {
      "id": "72",
      "price": 0.46,
      "side": "BUY",
      "vol": 1
    },
    {
      "id": "70",
      "price": 0.45,
      "side": "SELL",
      "vol": 5
    },
    {
      "id": "69",
      "price": 0.35,
      "side": "SELL",
      "vol": 10
    },
    {
      "id": "67",
      "price": 0.45,
      "side": "BUY",
      "vol": 1
    },
    {
      "id": "64",
      "price": 0.44,
      "side": "BUY",
      "vol": 3
    },
    {
      "id": "60",
      "price": 0.42,
      "side": "BUY",
      "vol": 5
    },
    {
      "id": "59",
      "price": 0.45,
      "side": "BUY",
      "vol": 1
    },
    {
      "id": "58",
      "price": 0.44,
      "side": "BUY",
      "vol": 1
    },
    {
      "id": "57",
      "price": 0.43,
      "side": "BUY",
      "vol": 1
    },
    {
      "id": "56",
      "price": 0.355,
      "side": "BUY",
      "vol": 1
    },
    {
      "id": "55",
      "price": 0.41,
      "side": "BUY",
      "vol": 1
    },
    {
      "id": "54",
      "price": 0.43,
      "side": "BUY",
      "vol": 1
    },
    {
      "id": "53",
      "price": 0.42,
      "side": "BUY",
      "vol": 1
    },
    {
      "id": "52",
      "price": 0.15,
      "side": "SELL",
      "vol": 0.5
    },
    {
      "id": "51",
      "price": 0.23,
      "side": "SELL",
      "vol": 0.5
    },
    {
      "id": "50",
      "price": 0.24,
      "side": "SELL",
      "vol": 1
    },
    {
      "id": "49",
      "price": 0.25,
      "side": "SELL",
      "vol": 1
    },
    {
      "id": "48",
      "price": 0.26,
      "side": "SELL",
      "vol": 1
    },
    {
      "id": "47",
      "price": 0.27,
      "side": "SELL",
      "vol": 1
    },
    {
      "id": "46",
      "price": 0.28,
      "side": "SELL",
      "vol": 1
    },
    {
      "id": "45",
      "price": 0.29,
      "side": "SELL",
      "vol": 1
    },
    {
      "id": "44",
      "price": 0.3,
      "side": "SELL",
      "vol": 0.5
    },
    {
      "id": "43",
      "price": 0.31,
      "side": "SELL",
      "vol": 1
    },
    {
      "id": "42",
      "price": 0.32,
      "side": "SELL",
      "vol": 1
    },
    {
      "id": "41",
      "price": 0.33,
      "side": "SELL",
      "vol": 1
    },
    {
      "id": "40",
      "price": 0.34,
      "side": "SELL",
      "vol": 1
    },
    {
      "id": "39",
      "price": 0.341,
      "side": "SELL",
      "vol": 0.5
    },
    {
      "id": "38",
      "price": 0.35,
      "side": "SELL",
      "vol": 1
    },
    {
      "id": "37",
      "price": 0.355,
      "side": "SELL",
      "vol": 1
    },
    {
      "id": "36",
      "price": 0.41,
      "side": "SELL",
      "vol": 0.5
    },
    {
      "id": "35",
      "price": 0.41,
      "side": "BUY",
      "vol": 0.5
    },
    {
      "id": "34",
      "price": 0.36,
      "side": "SELL",
      "vol": 1
    },
    {
      "id": "33",
      "price": 0.41,
      "side": "BUY",
      "vol": 0.5
    },
    {
      "id": "32",
      "price": 0.4,
      "side": "BUY",
      "vol": 1
    },
    {
      "id": "31",
      "price": 0.37,
      "side": "SELL",
      "vol": 0.5
    },
    {
      "id": "30",
      "price": 0.37,
      "side": "SELL",
      "vol": 0.5
    },
    {
      "id": "29",
      "price": 0.385,
      "side": "BUY",
      "vol": 1
    },
    {
      "id": "28",
      "price": 0.375,
      "side": "BUY",
      "vol": 1
    },
    {
      "id": "27",
      "price": 0.375,
      "side": "BUY",
      "vol": 1
    },
    {
      "id": "26",
      "price": 0.375,
      "side": "BUY",
      "vol": 1
    },
    {
      "id": "25",
      "price": 0.375,
      "side": "BUY",
      "vol": 1
    },
    {
      "id": "24",
      "price": 0.37,
      "side": "BUY",
      "vol": 1
    },
    {
      "id": "23",
      "price": 0.24,
      "side": "SELL",
      "vol": 1
    },
    {
      "id": "22",
      "price": 0.37,
      "side": "BUY",
      "vol": 1
    },
    {
      "id": "21",
      "price": 0.24,
      "side": "SELL",
      "vol": 1
    },
    {
      "id": "20",
      "price": 0.24,
      "side": "SELL",
      "vol": 4
    },
    {
      "id": "19",
      "price": 0.36,
      "side": "BUY",
      "vol": 2
    },
    {
      "id": "18",
      "price": 0.35,
      "side": "BUY",
      "vol": 0.1
    },
    {
      "id": "17",
      "price": 0.35,
      "side": "BUY",
      "vol": 0.9
    },
    {
      "id": "16",
      "price": 0.3,
      "side": "BUY",
      "vol": 1
    },
    {
      "id": "15",
      "price": 0.26,
      "side": "BUY",
      "vol": 1
    },
    {
      "id": "14",
      "price": 0.25,
      "side": "BUY",
      "vol": 0.5
    },
    {
      "id": "13",
      "price": 0.25,
      "side": "BUY",
      "vol": 1
    },
    {
      "id": "12",
      "price": 0.25,
      "side": "BUY",
      "vol": 0.5
    },
    {
      "id": "11",
      "price": 0.25,
      "side": "BUY",
      "vol": 0.5
    },
    {
      "id": "10",
      "price": 0.23,
      "side": "SELL",
      "vol": 0.5
    },
    {
      "id": "9",
      "price": 0.25,
      "side": "BUY",
      "vol": 0.5
    },
    {
      "id": "8",
      "price": 0.2,
      "side": "SELL",
      "vol": 1
    },
    {
      "id": "7",
      "price": 0.11,
      "side": "SELL",
      "vol": 1
    },
    {
      "id": "6",
      "price": 0.22,
      "side": "BUY",
      "vol": 3
    },
    {
      "id": "5",
      "price": 0.2,
      "side": "BUY",
      "vol": 0.5
    },
    {
      "id": "4",
      "price": 0.1,
      "side": "BUY",
      "vol": 1
    },
    {
      "id": "3",
      "price": 0.1,
      "side": "BUY",
      "vol": 0.5
    },
    {
      "id": "2",
      "price": 0.11,
      "side": "SELL",
      "vol": 0.5
    },
    {
      "id": "1",
      "price": 0.1,
      "side": "BUY",
      "vol": 1
    }
  ],
  "mD5": "3d4125fa3b58ae9598fd6de46e0b382e",
  "quoteCoin": "aaa",
  "symbol": "zaaaa",
  "type": "TRADE_TICKER"
}